%YAML 1.1
%TAG !u! tag:unity3d.com,2011:
--- !u!114 &11400000
MonoBehaviour:
  m_ObjectHideFlags: 0
  m_CorrespondingSourceObject: {fileID: 0}
  m_PrefabInstance: {fileID: 0}
  m_PrefabAsset: {fileID: 0}
  m_GameObject: {fileID: 0}
  m_Enabled: 1
  m_EditorHideFlags: 0
  m_Script: {fileID: 11500000, guid: 8c39bf04dfd9a804eacc52ba50555180, type: 3}
  m_Name: GameRules1
  m_EditorClassIdentifier: 
  PassiveIncome: {fileID: 11400000, guid: 823cf2be308ccd84290e771ec61e9dea, type: 2}
  PassiveIncomeInterval: {fileID: 11400000, guid: 24483dc8d3e2ecf4baadfeba83d6f645,
    type: 2}
  ActiveIncome: {fileID: 11400000, guid: 41ca724feec1ccb44bcc570a84c54619, type: 2}
  PassiveIncomeMultiplier: {fileID: 11400000, guid: 21af3e0c7f7d4d141b434e097afae410,
    type: 2}
  PassiveIncomeIntervalMultiplier: {fileID: 11400000, guid: 6f80f2b468b018c469c1786a4897fbfe,
    type: 2}
  ActiveIncomeMultiplier: {fileID: 11400000, guid: ad0cea2982c4f44438adca386f9c6338,
    type: 2}
