%YAML 1.1
%TAG !u! tag:unity3d.com,2011:
--- !u!114 &11400000
MonoBehaviour:
  m_ObjectHideFlags: 0
  m_CorrespondingSourceObject: {fileID: 0}
  m_PrefabInstance: {fileID: 0}
  m_PrefabAsset: {fileID: 0}
  m_GameObject: {fileID: 0}
  m_Enabled: 1
  m_EditorHideFlags: 0
  m_Script: {fileID: 11500000, guid: dd6343ac784c5ed40aa70fc1be29d639, type: 3}
  m_Name: InvestResultB
  m_EditorClassIdentifier: 
  Message: "\u201CYou win some, you lose some\u201D people say. It is not a good day
    for us, the company has gone bankrupt and we have lost the invested money."
  Probability: 50
  OperationalVariable: {fileID: 11400000, guid: 9fefd10c6818e8b489c1d9ac9b80020c,
    type: 2}
  Percentage: 80
